// Jest Snapshot v1, https://goo.gl/fbAQLP

exports[`<Button/> should change type depending on provided one 1`] = `
<button
  className="btn btn-default"
  onClick={[Function]}
  style={null}
  type="button"
/>
`;

exports[`<Button/> should change type depending on provided one 2`] = `
<button
  className="btn btn-default"
  onClick={[Function]}
  style={null}
  type="submit"
/>
`;

exports[`<Button/> should has "btn btn-default" className when neither className nor bootstrapBtn is provided 1`] = `
<button
  className="btn btn-default"
  onClick={[Function]}
  style={null}
  type="button"
/>
`;

exports[`<Button/> should has "btn btn-success" className when "success" bootstrapBtn is provided 1`] = `
<button
  className="btn btn-success"
  onClick={[Function]}
  style={null}
  type="button"
/>
`;

exports[`<Button/> should has "button" className when "button" className is provided 1`] = `
<button
  className="button"
  onClick={[Function]}
  style={null}
  type="button"
/>
`;
